<?xml version="1.0"?>
<gpx version="1.0">
	<trk>
		<trkseg>
			<trkpt lat="43.50715797689853" lon="-80.53462631954464" />
			<trkpt lat="43.50585850736416" lon="-80.53560959645263" />
		</trkseg>
	</trk>
</gpx>
