<?xml version='1.0' encoding='UTF-8'?>
<osm version='0.6' upload='false' generator='JOSM'>
  <node id='-101867' action='modify' lat='43.47376560987' lon='-80.54040141373'>
    <tag k='gs' v='egogoal' />
    <tag k='name' v='g1' />
    <tag k='order' v='1' />
  </node>
  <node id='1' action='modify' version='1' lat='43.47440635551' lon='-80.53828069513'>
    <tag k='gs' v='egostart' />
    <tag k='orientation' v='150' />
    <tag k='yaw' v='150' />
  </node>
  <node id='2' action='delete' version='1' lat='43.47406208188' lon='-80.53982237886'>
    <tag k='gs' v='egogoal' />
    <tag k='name' v='g1' />
    <tag k='order' v='1' />
  </node>
  <node id='3' action='modify' version='1' lat='43.47351915877' lon='-80.54063878285'>
    <tag k='gs' v='egogoal' />
    <tag k='name' v='g0' />
    <tag k='order' v='0' />
  </node>
  <node id='4' action='modify' version='1' lat='43.47413712168' lon='-80.53956349665'>
    <tag k='collision' v='yes' />
    <tag k='gs' v='globalconfig' />
    <tag k='lanelet' v='avin' />
    <tag k='mutate' v='no' />
    <tag k='name' v='phillip_lot_b' />
    <tag k='optimize' v='no' />
    <tag k='timeout' v='1200' />
    <tag k='version' v='1.1' />
  </node>
  <node id='5' action='modify' version='1' lat='43.47372873384' lon='-80.53988820076'>
    <tag k='elevation' v='0' />
    <tag k='gs' v='origin' />
  </node>
</osm>
