<?xml version='1.0' encoding='UTF-8'?>
<osm version='0.6' upload='false' generator='JOSM'>
  <node id='-1150983' action='modify' visible='true' lat='43.50129785574' lon='-80.53937717324'>
    <tag k='cycles' v='1' />
    <tag k='gs' v='vehicle' />
    <tag k='name' v='v_north' />
    <tag k='orientation' v='215' />
    <tag k='path' v='vpath_north' />
    <tag k='speed' v='10' />
    <tag k='start' v='false' />
  </node>
  <node id='-1150989' action='modify' visible='true' lat='43.50089311468' lon='-80.53849751302'>
    <tag k='astart' v='true' />
    <tag k='gs' v='trigger' />
    <tag k='name' v='t1' />
    <tag k='owner' v='ego' />
    <tag k='target' v='v_north' />
  </node>
  <node id='-1150985' action='modify' visible='true' lat='43.5022458' lon='-80.5402684'>
    <tag k='gs' v='egogoal' />
    <tag k='name' v='g1' />
  </node>
</osm>
