<?xml version='1.0' encoding='UTF-8'?>
<osm version='0.6' upload='false' generator='JOSM'>
  <node id='-1110672' action='modify' visible='true' lat='43.50906423878' lon='-80.5366068523'>
    <tag k='area' v='50' />
    <tag k='gs' v='staticobject' />
    <tag k='height' v='10' />
    <tag k='name' v='s1' />
  </node>
</osm>
