<?xml version='1.0' encoding='UTF-8'?>
<osm version='0.6' upload='false' generator='JOSM'>
  <node id='-528522' action='modify' visible='true' lat='43.51120285879' lon='-80.53096678874'>
    <tag k='elevation' v='300.001924902' />
  </node>
  <node id='-528524' action='modify' visible='true' lat='43.50860125603' lon='-80.53625112935'>
    <tag k='cycles' v='1' />
    <tag k='gs' v='vehicle' />
    <tag k='name' v='v1' />
    <tag k='orientation' v='50' />
    <tag k='speed' v='35' />
  </node>
  <node id='-528525' action='modify' visible='true' lat='43.5070014453' lon='-80.53437123612'>
    <tag k='apath' v='vp_1' />
    <tag k='astart' v='no' />
    <tag k='delay' v='0' />
    <tag k='gs' v='trigger' />
    <tag k='name' v='t1' />
    <tag k='owner' v='ego' />
    <tag k='radius' v='100' />
    <tag k='target' v='v1' />
  </node>
  <node id='-528526' action='modify' visible='true' lat='43.50846994523' lon='-80.53609924793' />
  <node id='-528528' action='modify' visible='true' lat='43.50816160921' lon='-80.53567814111' />
  <node id='-528529' action='modify' visible='true' lat='43.50685043499' lon='-80.53421063886' />
  <way id='-422888' action='modify' visible='true'>
    <nd ref='-528524' />
    <nd ref='-528526' />
    <nd ref='-528528' />
    <nd ref='-528529' />
    <tag k='gs' v='path' />
    <tag k='name' v='vp_1' />
    <tag k='virtual' v='no' />
  </way>
</osm>
