<?xml version='1.0' encoding='UTF-8'?>
<osm version='0.6' upload='false' generator='JOSM'>
  <node id='-1116143' visible='true' lat='43.470711' lon='-80.538428'>
    <tag k='cycles' v='1' />
    <tag k='gs' v='pedestrian' />
    <tag k='name' v='1' />
    <tag k='orientation' v='157' />
    <tag k='path' v='1_p' />
    <tag k='speed' v='5.9440' />
    <tag k='start' v='no' />
    <tag k='usespeedprofile' v='yes' />
  </node>
  <node id='-1116145' action='modify' visible='true' lat='43.47044234348' lon='-80.53845092646'>
    <tag k='activate' v='location' />
    <tag k='astart' v='yes' />
    <tag k='delay' v='0.0' />
    <tag k='gs' v='trigger' />
    <tag k='name' v='2' />
    <tag k='owner' v='ego' />
    <tag k='radius' v='100' />
    <tag k='target' v='1' />
  </node>
  <node id='-1116147' visible='true' lat='43.470699' lon='-80.538467'>
    <tag k='agentspeed' v='5.8569' />
  </node>
  <node id='-1116149' visible='true' lat='43.470686' lon='-80.538501'>
    <tag k='agentspeed' v='6.0442' />
  </node>
  <node id='-1116151' visible='true' lat='43.470677' lon='-80.538539'>
    <tag k='agentspeed' v='4.4799' />
  </node>
  <node id='-1116154' visible='true' lat='43.470713' lon='-80.538384'>
    <tag k='cycles' v='1' />
    <tag k='gs' v='pedestrian' />
    <tag k='name' v='3' />
    <tag k='orientation' v='155' />
    <tag k='path' v='3_p' />
    <tag k='speed' v='5.4733' />
    <tag k='start' v='no' />
    <tag k='usespeedprofile' v='yes' />
  </node>
  <node id='-1116156' action='modify' visible='true' lat='43.47044234348' lon='-80.53845092646'>
    <tag k='activate' v='location' />
    <tag k='astart' v='yes' />
    <tag k='delay' v='0.0' />
    <tag k='gs' v='trigger' />
    <tag k='name' v='4' />
    <tag k='owner' v='ego' />
    <tag k='radius' v='100' />
    <tag k='target' v='3' />
  </node>
  <node id='-1116158' visible='true' lat='43.470701' lon='-80.538421'>
    <tag k='agentspeed' v='6.4112' />
  </node>
  <node id='-1116160' visible='true' lat='43.470683' lon='-80.538459'>
    <tag k='agentspeed' v='6.8127' />
  </node>
  <node id='-1116162' visible='true' lat='43.470658' lon='-80.538493'>
    <tag k='agentspeed' v='7.0792' />
  </node>
  <node id='-1116164' visible='true' lat='43.470628' lon='-80.538514'>
    <tag k='agentspeed' v='6.4039' />
  </node>
  <node id='-1116166' visible='true' lat='43.470597' lon='-80.538519'>
    <tag k='agentspeed' v='6.2347' />
  </node>
  <node id='-1116169' visible='true' lat='43.47073' lon='-80.538385'>
    <tag k='cycles' v='1' />
    <tag k='gs' v='pedestrian' />
    <tag k='name' v='5' />
    <tag k='orientation' v='152' />
    <tag k='path' v='5_p' />
    <tag k='speed' v='5.3662' />
    <tag k='start' v='no' />
    <tag k='usespeedprofile' v='yes' />
  </node>
  <node id='-1116171' action='modify' visible='true' lat='43.47044234348' lon='-80.53845092646'>
    <tag k='activate' v='location' />
    <tag k='astart' v='yes' />
    <tag k='delay' v='0.0' />
    <tag k='gs' v='trigger' />
    <tag k='name' v='6' />
    <tag k='owner' v='ego' />
    <tag k='radius' v='100' />
    <tag k='target' v='5' />
  </node>
  <node id='-1116173' visible='true' lat='43.470718' lon='-80.538417'>
    <tag k='agentspeed' v='5.4413' />
  </node>
  <node id='-1116175' visible='true' lat='43.470704' lon='-80.538454'>
    <tag k='agentspeed' v='6.3564' />
  </node>
  <node id='-1116177' visible='true' lat='43.470691' lon='-80.538493'>
    <tag k='agentspeed' v='6.1640' />
  </node>
  <node id='-1116179' visible='true' lat='43.47068' lon='-80.538532'>
    <tag k='agentspeed' v='5.8996' />
  </node>
  <node id='-1116182' visible='true' lat='43.470746' lon='-80.538333'>
    <tag k='cycles' v='1' />
    <tag k='gs' v='pedestrian' />
    <tag k='name' v='7' />
    <tag k='orientation' v='159' />
    <tag k='path' v='7_p' />
    <tag k='speed' v='6.2099' />
    <tag k='start' v='no' />
    <tag k='usespeedprofile' v='yes' />
  </node>
  <node id='-1116184' action='modify' visible='true' lat='43.47044234348' lon='-80.53845092646'>
    <tag k='activate' v='location' />
    <tag k='astart' v='yes' />
    <tag k='delay' v='0.0' />
    <tag k='gs' v='trigger' />
    <tag k='name' v='8' />
    <tag k='owner' v='ego' />
    <tag k='radius' v='100' />
    <tag k='target' v='7' />
  </node>
  <node id='-1116186' visible='true' lat='43.470735' lon='-80.538373'>
    <tag k='agentspeed' v='6.1706' />
  </node>
  <node id='-1116188' visible='true' lat='43.470726' lon='-80.538412'>
    <tag k='agentspeed' v='5.7196' />
  </node>
  <node id='-1116190' visible='true' lat='43.470717' lon='-80.538449'>
    <tag k='agentspeed' v='5.6607' />
  </node>
  <node id='-1116192' visible='true' lat='43.470707' lon='-80.538485'>
    <tag k='agentspeed' v='5.5126' />
  </node>
  <node id='-1116194' visible='true' lat='43.470697' lon='-80.538522'>
    <tag k='agentspeed' v='6.3344' />
  </node>
  <node id='-1116197' visible='true' lat='43.47073' lon='-80.538324'>
    <tag k='cycles' v='1' />
    <tag k='gs' v='pedestrian' />
    <tag k='name' v='9' />
    <tag k='orientation' v='157' />
    <tag k='path' v='9_p' />
    <tag k='speed' v='6.7253' />
    <tag k='start' v='no' />
    <tag k='usespeedprofile' v='yes' />
  </node>
  <node id='-1116199' action='modify' visible='true' lat='43.47044234348' lon='-80.53845092646'>
    <tag k='activate' v='location' />
    <tag k='astart' v='yes' />
    <tag k='delay' v='0.0' />
    <tag k='gs' v='trigger' />
    <tag k='name' v='10' />
    <tag k='owner' v='ego' />
    <tag k='radius' v='100' />
    <tag k='target' v='9' />
  </node>
  <node id='-1116201' visible='true' lat='43.470717' lon='-80.538367'>
    <tag k='agentspeed' v='6.7077' />
  </node>
  <node id='-1116203' visible='true' lat='43.470708' lon='-80.538411'>
    <tag k='agentspeed' v='6.6114' />
  </node>
  <node id='-1116205' visible='true' lat='43.4707' lon='-80.538454'>
    <tag k='agentspeed' v='6.1077' />
  </node>
  <node id='-1116207' visible='true' lat='43.47069' lon='-80.538491'>
    <tag k='agentspeed' v='5.7191' />
  </node>
  <node id='-1116209' visible='true' lat='43.470678' lon='-80.538532'>
    <tag k='agentspeed' v='7.0613' />
  </node>
  <node id='-1116212' visible='true' lat='43.470738' lon='-80.538332'>
    <tag k='cycles' v='1' />
    <tag k='gs' v='pedestrian' />
    <tag k='name' v='11' />
    <tag k='orientation' v='157' />
    <tag k='path' v='11_p' />
    <tag k='speed' v='6.3376' />
    <tag k='start' v='no' />
    <tag k='usespeedprofile' v='yes' />
  </node>
  <node id='-1116214' action='modify' visible='true' lat='43.47044234348' lon='-80.53845092646'>
    <tag k='activate' v='location' />
    <tag k='astart' v='yes' />
    <tag k='delay' v='0.834167' />
    <tag k='gs' v='trigger' />
    <tag k='name' v='12' />
    <tag k='owner' v='ego' />
    <tag k='radius' v='100' />
    <tag k='target' v='11' />
  </node>
  <node id='-1116216' visible='true' lat='43.470726' lon='-80.538372'>
    <tag k='agentspeed' v='6.3231' />
  </node>
  <node id='-1116218' visible='true' lat='43.470716' lon='-80.538412'>
    <tag k='agentspeed' v='6.1560' />
  </node>
  <node id='-1116220' visible='true' lat='43.470706' lon='-80.538452'>
    <tag k='agentspeed' v='6.1620' />
  </node>
  <node id='-1116222' visible='true' lat='43.470693' lon='-80.538491'>
    <tag k='agentspeed' v='6.1657' />
  </node>
  <node id='-1116224' visible='true' lat='43.47068' lon='-80.538529'>
    <tag k='agentspeed' v='5.9495' />
  </node>
  <node id='-1116227' visible='true' lat='43.47074' lon='-80.538335'>
    <tag k='cycles' v='1' />
    <tag k='gs' v='pedestrian' />
    <tag k='name' v='13' />
    <tag k='orientation' v='161' />
    <tag k='path' v='13_p' />
    <tag k='speed' v='6.3372' />
    <tag k='start' v='no' />
    <tag k='usespeedprofile' v='yes' />
  </node>
  <node id='-1116229' action='modify' visible='true' lat='43.47044234348' lon='-80.53845092646'>
    <tag k='activate' v='location' />
    <tag k='astart' v='yes' />
    <tag k='delay' v='2.168833' />
    <tag k='gs' v='trigger' />
    <tag k='name' v='14' />
    <tag k='owner' v='ego' />
    <tag k='radius' v='100' />
    <tag k='target' v='13' />
  </node>
  <node id='-1116231' visible='true' lat='43.47073' lon='-80.538376'>
    <tag k='agentspeed' v='6.3612' />
  </node>
  <node id='-1116233' visible='true' lat='43.470727' lon='-80.538421'>
    <tag k='agentspeed' v='6.6062' />
  </node>
  <node id='-1116235' visible='true' lat='43.470733' lon='-80.538466'>
    <tag k='agentspeed' v='6.7673' />
  </node>
  <node id='-1116237' visible='true' lat='43.47075' lon='-80.538507'>
    <tag k='agentspeed' v='6.8587' />
  </node>
  <node id='-1116239' visible='true' lat='43.470776' lon='-80.538534'>
    <tag k='agentspeed' v='6.3755' />
  </node>
  <node id='-1116241' visible='true' lat='43.470805' lon='-80.53855'>
    <tag k='agentspeed' v='6.1143' />
  </node>
  <node id='-1116243' visible='true' lat='43.470832' lon='-80.538567'>
    <tag k='agentspeed' v='5.8981' />
  </node>
  <node id='-1116246' visible='true' lat='43.470725' lon='-80.538329'>
    <tag k='cycles' v='1' />
    <tag k='gs' v='pedestrian' />
    <tag k='name' v='15' />
    <tag k='orientation' v='164' />
    <tag k='path' v='15_p' />
    <tag k='speed' v='5.8662' />
    <tag k='start' v='no' />
    <tag k='usespeedprofile' v='yes' />
  </node>
  <node id='-1116248' action='modify' visible='true' lat='43.47044234348' lon='-80.53845092646'>
    <tag k='activate' v='location' />
    <tag k='astart' v='yes' />
    <tag k='delay' v='3.336667' />
    <tag k='gs' v='trigger' />
    <tag k='name' v='16' />
    <tag k='owner' v='ego' />
    <tag k='radius' v='100' />
    <tag k='target' v='15' />
  </node>
  <node id='-1116250' visible='true' lat='43.470717' lon='-80.538368'>
    <tag k='agentspeed' v='5.8534' />
  </node>
  <node id='-1116252' visible='true' lat='43.470708' lon='-80.538406'>
    <tag k='agentspeed' v='5.7311' />
  </node>
  <node id='-1116254' visible='true' lat='43.470697' lon='-80.538442'>
    <tag k='agentspeed' v='5.6180' />
  </node>
  <node id='-1116256' visible='true' lat='43.470688' lon='-80.538478'>
    <tag k='agentspeed' v='5.5179' />
  </node>
  <node id='-1116258' visible='true' lat='43.47068' lon='-80.538514'>
    <tag k='agentspeed' v='5.5418' />
  </node>
  <node id='-1116260' visible='true' lat='43.470671' lon='-80.53855'>
    <tag k='agentspeed' v='5.5417' />
  </node>
  <node id='-1116263' visible='true' lat='43.470736' lon='-80.538334'>
    <tag k='cycles' v='1' />
    <tag k='gs' v='pedestrian' />
    <tag k='name' v='17' />
    <tag k='orientation' v='155' />
    <tag k='path' v='17_p' />
    <tag k='speed' v='5.9285' />
    <tag k='start' v='no' />
    <tag k='usespeedprofile' v='yes' />
  </node>
  <node id='-1116265' action='modify' visible='true' lat='43.47044234348' lon='-80.53845092646'>
    <tag k='activate' v='location' />
    <tag k='astart' v='yes' />
    <tag k='delay' v='4.671333' />
    <tag k='gs' v='trigger' />
    <tag k='name' v='18' />
    <tag k='owner' v='ego' />
    <tag k='radius' v='100' />
    <tag k='target' v='17' />
  </node>
  <node id='-1116267' visible='true' lat='43.470724' lon='-80.538371'>
    <tag k='agentspeed' v='5.8741' />
  </node>
  <node id='-1116269' visible='true' lat='43.470711' lon='-80.538405'>
    <tag k='agentspeed' v='5.2630' />
  </node>
  <node id='-1116271' visible='true' lat='43.470696' lon='-80.538435'>
    <tag k='agentspeed' v='5.1702' />
  </node>
  <node id='-1116273' visible='true' lat='43.47068' lon='-80.538462'>
    <tag k='agentspeed' v='5.1631' />
  </node>
  <node id='-1116275' visible='true' lat='43.47066' lon='-80.538485'>
    <tag k='agentspeed' v='5.4448' />
  </node>
  <node id='-1116277' visible='true' lat='43.470635' lon='-80.538504'>
    <tag k='agentspeed' v='5.7543' />
  </node>
  <node id='-1116279' visible='true' lat='43.470607' lon='-80.538515'>
    <tag k='agentspeed' v='6.0192' />
  </node>
  <node id='-1116281' visible='true' lat='43.470577' lon='-80.53852'>
    <tag k='agentspeed' v='6.0459' />
  </node>
  <node id='-1116284' visible='true' lat='43.470735' lon='-80.538328'>
    <tag k='cycles' v='1' />
    <tag k='gs' v='pedestrian' />
    <tag k='name' v='19' />
    <tag k='orientation' v='158' />
    <tag k='path' v='19_p' />
    <tag k='speed' v='5.4018' />
    <tag k='start' v='no' />
    <tag k='usespeedprofile' v='yes' />
  </node>
  <node id='-1116286' action='modify' visible='true' lat='43.47044234348' lon='-80.53845092646'>
    <tag k='activate' v='location' />
    <tag k='astart' v='yes' />
    <tag k='delay' v='6.673333' />
    <tag k='gs' v='trigger' />
    <tag k='name' v='20' />
    <tag k='owner' v='ego' />
    <tag k='radius' v='100' />
    <tag k='target' v='19' />
  </node>
  <node id='-1116288' visible='true' lat='43.470725' lon='-80.538363'>
    <tag k='agentspeed' v='5.3913' />
  </node>
  <node id='-1116290' visible='true' lat='43.470717' lon='-80.538398'>
    <tag k='agentspeed' v='5.3075' />
  </node>
  <node id='-1116292' visible='true' lat='43.470708' lon='-80.538432'>
    <tag k='agentspeed' v='5.1436' />
  </node>
  <node id='-1116294' visible='true' lat='43.470697' lon='-80.538463'>
    <tag k='agentspeed' v='4.9881' />
  </node>
  <node id='-1116296' visible='true' lat='43.470686' lon='-80.538494'>
    <tag k='agentspeed' v='4.9510' />
  </node>
  <node id='-1116298' visible='true' lat='43.470676' lon='-80.538526'>
    <tag k='agentspeed' v='5.1817' />
  </node>
  <node id='-1116301' visible='true' lat='43.47074' lon='-80.53833'>
    <tag k='cycles' v='1' />
    <tag k='gs' v='pedestrian' />
    <tag k='name' v='21' />
    <tag k='orientation' v='159' />
    <tag k='path' v='21_p' />
    <tag k='speed' v='5.7008' />
    <tag k='start' v='no' />
    <tag k='usespeedprofile' v='yes' />
  </node>
  <node id='-1116303' action='modify' visible='true' lat='43.47044234348' lon='-80.53845092646'>
    <tag k='activate' v='location' />
    <tag k='astart' v='yes' />
    <tag k='delay' v='8.008' />
    <tag k='gs' v='trigger' />
    <tag k='name' v='22' />
    <tag k='owner' v='ego' />
    <tag k='radius' v='100' />
    <tag k='target' v='21' />
  </node>
  <node id='-1116305' visible='true' lat='43.47073' lon='-80.538367'>
    <tag k='agentspeed' v='5.6702' />
  </node>
  <node id='-1116307' visible='true' lat='43.470721' lon='-80.538402'>
    <tag k='agentspeed' v='5.3495' />
  </node>
  <node id='-1116309' visible='true' lat='43.470713' lon='-80.538437'>
    <tag k='agentspeed' v='5.2004' />
  </node>
  <node id='-1116311' visible='true' lat='43.470704' lon='-80.53847'>
    <tag k='agentspeed' v='5.0908' />
  </node>
  <node id='-1116313' visible='true' lat='43.470695' lon='-80.538503'>
    <tag k='agentspeed' v='5.2106' />
  </node>
  <node id='-1116315' visible='true' lat='43.470685' lon='-80.538537'>
    <tag k='agentspeed' v='5.2265' />
  </node>
  <node id='-1116318' visible='true' lat='43.470745' lon='-80.538335'>
    <tag k='cycles' v='1' />
    <tag k='gs' v='pedestrian' />
    <tag k='name' v='23' />
    <tag k='orientation' v='161' />
    <tag k='path' v='23_p' />
    <tag k='speed' v='5.4768' />
    <tag k='start' v='no' />
    <tag k='usespeedprofile' v='yes' />
  </node>
  <node id='-1116320' action='modify' visible='true' lat='43.47044234348' lon='-80.53845092646'>
    <tag k='activate' v='location' />
    <tag k='astart' v='yes' />
    <tag k='delay' v='8.008' />
    <tag k='gs' v='trigger' />
    <tag k='name' v='24' />
    <tag k='owner' v='ego' />
    <tag k='radius' v='100' />
    <tag k='target' v='23' />
  </node>
  <node id='-1116322' visible='true' lat='43.470736' lon='-80.538371'>
    <tag k='agentspeed' v='5.4983' />
  </node>
  <node id='-1116324' visible='true' lat='43.470727' lon='-80.538408'>
    <tag k='agentspeed' v='5.8692' />
  </node>
  <node id='-1116326' visible='true' lat='43.470719' lon='-80.538445'>
    <tag k='agentspeed' v='5.3400' />
  </node>
  <node id='-1116328' visible='true' lat='43.470711' lon='-80.538478'>
    <tag k='agentspeed' v='4.8105' />
  </node>
  <node id='-1116330' visible='true' lat='43.470702' lon='-80.53851'>
    <tag k='agentspeed' v='5.1802' />
  </node>
  <node id='-1116332' visible='true' lat='43.470691' lon='-80.538542'>
    <tag k='agentspeed' v='5.2016' />
  </node>
  <node id='-1116335' visible='true' lat='43.470737' lon='-80.538337'>
    <tag k='cycles' v='1' />
    <tag k='gs' v='pedestrian' />
    <tag k='name' v='25' />
    <tag k='orientation' v='160' />
    <tag k='path' v='25_p' />
    <tag k='speed' v='6.0428' />
    <tag k='start' v='no' />
    <tag k='usespeedprofile' v='yes' />
  </node>
  <node id='-1116337' action='modify' visible='true' lat='43.47044234348' lon='-80.53845092646'>
    <tag k='activate' v='location' />
    <tag k='astart' v='yes' />
    <tag k='delay' v='12.178833' />
    <tag k='gs' v='trigger' />
    <tag k='name' v='26' />
    <tag k='owner' v='ego' />
    <tag k='radius' v='100' />
    <tag k='target' v='25' />
  </node>
  <node id='-1116339' visible='true' lat='43.470727' lon='-80.538376'>
    <tag k='agentspeed' v='6.0290' />
  </node>
  <node id='-1116341' visible='true' lat='43.470716' lon='-80.538414'>
    <tag k='agentspeed' v='5.9087' />
  </node>
  <node id='-1116343' visible='true' lat='43.470705' lon='-80.538452'>
    <tag k='agentspeed' v='5.7598' />
  </node>
  <node id='-1116345' visible='true' lat='43.470695' lon='-80.538489'>
    <tag k='agentspeed' v='5.5632' />
  </node>
  <node id='-1116347' visible='true' lat='43.470687' lon='-80.538523'>
    <tag k='agentspeed' v='4.8815' />
  </node>
  <node id='-1116350' visible='true' lat='43.470744' lon='-80.538336'>
    <tag k='cycles' v='1' />
    <tag k='gs' v='pedestrian' />
    <tag k='name' v='27' />
    <tag k='orientation' v='160' />
    <tag k='path' v='27_p' />
    <tag k='speed' v='5.9431' />
    <tag k='start' v='no' />
    <tag k='usespeedprofile' v='yes' />
  </node>
  <node id='-1116352' action='modify' visible='true' lat='43.47044234348' lon='-80.53845092646'>
    <tag k='activate' v='location' />
    <tag k='astart' v='yes' />
    <tag k='delay' v='19.185833' />
    <tag k='gs' v='trigger' />
    <tag k='name' v='28' />
    <tag k='owner' v='ego' />
    <tag k='radius' v='100' />
    <tag k='target' v='27' />
  </node>
  <node id='-1116354' visible='true' lat='43.470734' lon='-80.538374'>
    <tag k='agentspeed' v='5.9725' />
  </node>
  <node id='-1116356' visible='true' lat='43.470723' lon='-80.538414'>
    <tag k='agentspeed' v='6.3546' />
  </node>
  <node id='-1116358' visible='true' lat='43.470712' lon='-80.538455'>
    <tag k='agentspeed' v='6.1626' />
  </node>
  <node id='-1116360' visible='true' lat='43.470701' lon='-80.538493'>
    <tag k='agentspeed' v='5.9739' />
  </node>
  <node id='-1116362' visible='true' lat='43.470691' lon='-80.538534'>
    <tag k='agentspeed' v='6.4390' />
  </node>
  <node id='-1116365' visible='true' lat='43.470734' lon='-80.538336'>
    <tag k='cycles' v='1' />
    <tag k='gs' v='pedestrian' />
    <tag k='name' v='29' />
    <tag k='orientation' v='159' />
    <tag k='path' v='29_p' />
    <tag k='speed' v='6.9648' />
    <tag k='start' v='no' />
    <tag k='usespeedprofile' v='yes' />
  </node>
  <node id='-1116367' action='modify' visible='true' lat='43.47044234348' lon='-80.53845092646'>
    <tag k='activate' v='location' />
    <tag k='astart' v='yes' />
    <tag k='delay' v='20.854167' />
    <tag k='gs' v='trigger' />
    <tag k='name' v='30' />
    <tag k='owner' v='ego' />
    <tag k='radius' v='100' />
    <tag k='target' v='29' />
  </node>
  <node id='-1116369' visible='true' lat='43.470722' lon='-80.538381'>
    <tag k='agentspeed' v='6.9410' />
  </node>
  <node id='-1116371' visible='true' lat='43.470708' lon='-80.538425'>
    <tag k='agentspeed' v='6.8066' />
  </node>
  <node id='-1116373' visible='true' lat='43.470695' lon='-80.538466'>
    <tag k='agentspeed' v='6.1898' />
  </node>
  <node id='-1116375' visible='true' lat='43.470684' lon='-80.538503'>
    <tag k='agentspeed' v='5.6190' />
  </node>
  <node id='-1116377' visible='true' lat='43.470675' lon='-80.538541'>
    <tag k='agentspeed' v='6.0349' />
  </node>
  <node id='-1116403' action='modify' visible='true' lat='43.47042463858' lon='-80.53845908526'>
    <tag k='gs' v='egostart' />
    <tag k='orientation' v='300' />
  </node>
  <node id='-1116407' action='modify' visible='true' lat='43.47088621473' lon='-80.53848691352'>
    <tag k='gs' v='egogoal' />
    <tag k='name' v='g1' />
  </node>
  <way id='-1116152' visible='true'>
    <nd ref='-1116143' />
    <nd ref='-1116147' />
    <nd ref='-1116149' />
    <nd ref='-1116151' />
    <tag k='gs' v='path' />
    <tag k='name' v='1_p' />
    <tag k='virtual' v='no' />
  </way>
  <way id='-1116167' visible='true'>
    <nd ref='-1116154' />
    <nd ref='-1116158' />
    <nd ref='-1116160' />
    <nd ref='-1116162' />
    <nd ref='-1116164' />
    <nd ref='-1116166' />
    <tag k='gs' v='path' />
    <tag k='name' v='3_p' />
    <tag k='virtual' v='no' />
  </way>
  <way id='-1116180' visible='true'>
    <nd ref='-1116169' />
    <nd ref='-1116173' />
    <nd ref='-1116175' />
    <nd ref='-1116177' />
    <nd ref='-1116179' />
    <tag k='gs' v='path' />
    <tag k='name' v='5_p' />
    <tag k='virtual' v='no' />
  </way>
  <way id='-1116195' visible='true'>
    <nd ref='-1116182' />
    <nd ref='-1116186' />
    <nd ref='-1116188' />
    <nd ref='-1116190' />
    <nd ref='-1116192' />
    <nd ref='-1116194' />
    <tag k='gs' v='path' />
    <tag k='name' v='7_p' />
    <tag k='virtual' v='no' />
  </way>
  <way id='-1116210' visible='true'>
    <nd ref='-1116197' />
    <nd ref='-1116201' />
    <nd ref='-1116203' />
    <nd ref='-1116205' />
    <nd ref='-1116207' />
    <nd ref='-1116209' />
    <tag k='gs' v='path' />
    <tag k='name' v='9_p' />
    <tag k='virtual' v='no' />
  </way>
  <way id='-1116225' visible='true'>
    <nd ref='-1116212' />
    <nd ref='-1116216' />
    <nd ref='-1116218' />
    <nd ref='-1116220' />
    <nd ref='-1116222' />
    <nd ref='-1116224' />
    <tag k='gs' v='path' />
    <tag k='name' v='11_p' />
    <tag k='virtual' v='no' />
  </way>
  <way id='-1116244' visible='true'>
    <nd ref='-1116227' />
    <nd ref='-1116231' />
    <nd ref='-1116233' />
    <nd ref='-1116235' />
    <nd ref='-1116237' />
    <nd ref='-1116239' />
    <nd ref='-1116241' />
    <nd ref='-1116243' />
    <tag k='gs' v='path' />
    <tag k='name' v='13_p' />
    <tag k='virtual' v='no' />
  </way>
  <way id='-1116261' visible='true'>
    <nd ref='-1116246' />
    <nd ref='-1116250' />
    <nd ref='-1116252' />
    <nd ref='-1116254' />
    <nd ref='-1116256' />
    <nd ref='-1116258' />
    <nd ref='-1116260' />
    <tag k='gs' v='path' />
    <tag k='name' v='15_p' />
    <tag k='virtual' v='no' />
  </way>
  <way id='-1116282' visible='true'>
    <nd ref='-1116263' />
    <nd ref='-1116267' />
    <nd ref='-1116269' />
    <nd ref='-1116271' />
    <nd ref='-1116273' />
    <nd ref='-1116275' />
    <nd ref='-1116277' />
    <nd ref='-1116279' />
    <nd ref='-1116281' />
    <tag k='gs' v='path' />
    <tag k='name' v='17_p' />
    <tag k='virtual' v='no' />
  </way>
  <way id='-1116299' visible='true'>
    <nd ref='-1116284' />
    <nd ref='-1116288' />
    <nd ref='-1116290' />
    <nd ref='-1116292' />
    <nd ref='-1116294' />
    <nd ref='-1116296' />
    <nd ref='-1116298' />
    <tag k='gs' v='path' />
    <tag k='name' v='19_p' />
    <tag k='virtual' v='no' />
  </way>
  <way id='-1116316' visible='true'>
    <nd ref='-1116301' />
    <nd ref='-1116305' />
    <nd ref='-1116307' />
    <nd ref='-1116309' />
    <nd ref='-1116311' />
    <nd ref='-1116313' />
    <nd ref='-1116315' />
    <tag k='gs' v='path' />
    <tag k='name' v='21_p' />
    <tag k='virtual' v='no' />
  </way>
  <way id='-1116333' visible='true'>
    <nd ref='-1116318' />
    <nd ref='-1116322' />
    <nd ref='-1116324' />
    <nd ref='-1116326' />
    <nd ref='-1116328' />
    <nd ref='-1116330' />
    <nd ref='-1116332' />
    <tag k='gs' v='path' />
    <tag k='name' v='23_p' />
    <tag k='virtual' v='no' />
  </way>
  <way id='-1116348' visible='true'>
    <nd ref='-1116335' />
    <nd ref='-1116339' />
    <nd ref='-1116341' />
    <nd ref='-1116343' />
    <nd ref='-1116345' />
    <nd ref='-1116347' />
    <tag k='gs' v='path' />
    <tag k='name' v='25_p' />
    <tag k='virtual' v='no' />
  </way>
  <way id='-1116363' visible='true'>
    <nd ref='-1116350' />
    <nd ref='-1116354' />
    <nd ref='-1116356' />
    <nd ref='-1116358' />
    <nd ref='-1116360' />
    <nd ref='-1116362' />
    <tag k='gs' v='path' />
    <tag k='name' v='27_p' />
    <tag k='virtual' v='no' />
  </way>
  <way id='-1116378' visible='true'>
    <nd ref='-1116365' />
    <nd ref='-1116369' />
    <nd ref='-1116371' />
    <nd ref='-1116373' />
    <nd ref='-1116375' />
    <nd ref='-1116377' />
    <tag k='gs' v='path' />
    <tag k='name' v='29_p' />
    <tag k='virtual' v='no' />
  </way>
</osm>
