<?xml version='1.0' encoding='UTF-8'?>
<osm version='0.6' upload='false' generator='JOSM'>
  <node id='-1086357' action='modify' visible='true' lat='43.4716027816' lon='-80.53958728943'>
    <tag k='gs' v='egostart' />
    <tag k='orientation' v='220' />
  </node>
  <node id='-1086359' action='modify' visible='true' lat='43.47231264901' lon='-80.54059110599'>
    <tag k='gs' v='egogoal' />
    <tag k='name' v='g1' />
  </node>
  <node id='-1086361' action='modify' visible='true' lat='43.47207578424' lon='-80.5400905389'>
    <tag k='cycles' v='1' />
    <tag k='gs' v='pedestrian' />
    <tag k='name' v='hungry_bolt' />
    <tag k='orientation' v='150' />
    <tag k='path' v='free_food_in_dc' />
    <tag k='speed' v='44' />
    <tag k='start' v='false' />
    <tag k='usespeedprofile' v='no' />
  </node>
  <node id='-1086363' action='modify' visible='true' lat='43.47207627086' lon='-80.5401002619' />
  <node id='-1086365' action='modify' visible='true' lat='43.47208016387' lon='-80.54013513062' />
  <node id='-1086367' action='modify' visible='true' lat='43.47208357869' lon='-80.54016571633' />
  <node id='-1086369' action='modify' visible='true' lat='43.47208308363' lon='-80.54019816253' />
  <node id='-1086371' action='modify' visible='true' lat='43.47208186706' lon='-80.54022498462' />
  <node id='-1086373' action='modify' visible='true' lat='43.4720750543' lon='-80.54025281254' />
  <node id='-1086375' action='modify' visible='true' lat='43.47206094237' lon='-80.54027997024' />
  <node id='-1086377' action='modify' visible='true' lat='43.47204926334' lon='-80.54031819172' />
  <node id='-1086379' action='modify' visible='true' lat='43.47204731683' lon='-80.54035037823' />
  <node id='-1086381' action='modify' visible='true' lat='43.47205558948' lon='-80.54038792916' />
  <node id='-1086383' action='modify' visible='true' lat='43.47207700104' lon='-80.54041609235' />
  <node id='-1086385' action='modify' visible='true' lat='43.47209597947' lon='-80.54044291444' />
  <node id='-1086423' action='modify' visible='true' lat='43.4719456118' lon='-80.54010629721'>
    <tag k='activate' v='location' />
    <tag k='astart' v='yes' />
    <tag k='gs' v='trigger' />
    <tag k='name' v='bolt_learns_there_is_free_food' />
    <tag k='owner' v='ego' />
    <tag k='radius' v='100' />
    <tag k='target' v='hungry_bolt' />
  </node>
  <node id='-1086425' action='modify' visible='true' lat='43.47199524777' lon='-80.54005600579'>
    <tag k='collision' v='yes' />
    <tag k='gs' v='globalconfig' />
    <tag k='lanelet' v='ring_road' />
    <tag k='mutate' v='no' />
    <tag k='name' v='rr_xwalk_100m_dash' />
    <tag k='optimize' v='no' />
    <tag k='timeout' v='60' />
    <tag k='version' v='1.1' />
  </node>
  <way id='-1086429' action='modify' visible='true'>
    <nd ref='-1086361' />
    <nd ref='-1086363' />
    <nd ref='-1086365' />
    <nd ref='-1086367' />
    <nd ref='-1086369' />
    <nd ref='-1086371' />
    <nd ref='-1086373' />
    <nd ref='-1086375' />
    <nd ref='-1086377' />
    <nd ref='-1086379' />
    <nd ref='-1086381' />
    <nd ref='-1086383' />
    <nd ref='-1086385' />
    <tag k='gs' v='path' />
    <tag k='name' v='free_food_in_dc' />
    <tag k='virtual' v='no' />
  </way>
</osm>
