<?xml version='1.0' encoding='UTF-8'?>
<osm version='0.6' upload='false' generator='JOSM'>
  <node id='-1086475' action='modify' visible='true' lat='43.51120285879' lon='-80.53096678874'>
    <tag k='elevation' v='300.001924902' />
  </node>
  <node id='-1086482' action='modify' visible='true' lat='43.50913391282' lon='-80.536826804'>
    <tag k='activate' v='location' />
    <tag k='astart' v='yes' />
    <tag k='delay' v='10.15' />
    <tag k='gs' v='trigger' />
    <tag k='name' v='bolt_learns_there_is_free_food' />
    <tag k='owner' v='ego' />
    <tag k='radius' v='100' />
    <tag k='target' v='hungry_bolt' />
  </node>
  <node id='-1086483' action='modify' visible='true' lat='43.50912540183' lon='-80.53659646896' />
  <node id='-1086484' action='modify' visible='true' lat='43.50909914036' lon='-80.5367594135' />
  <node id='-1086485' action='modify' visible='true' lat='43.50915409518' lon='-80.5363839039'>
    <tag k='cycles' v='1' />
    <tag k='gs' v='pedestrian' />
    <tag k='name' v='hungry_bolt' />
    <tag k='orientation' v='150' />
    <tag k='path' v='free_food_in_dc' />
    <tag k='speed' v='40' />
    <tag k='start' v='false' />
    <tag k='usespeedprofile' v='no' />
  </node>
  <node id='-1086486' action='modify' visible='true' lat='43.50909087279' lon='-80.53672186257' />
  <node id='-1086487' action='modify' visible='true' lat='43.50912661765' lon='-80.53656964687' />
  <node id='-1086488' action='modify' visible='true' lat='43.50912711241' lon='-80.53653720067' />
  <node id='-1086489' action='modify' visible='true' lat='43.5090928181' lon='-80.53668967606' />
  <node id='-1086490' action='modify' visible='true' lat='43.50910448997' lon='-80.53665145458' />
  <node id='-1086491' action='modify' visible='true' lat='43.50913950559' lon='-80.53681439878' />
  <node id='-1086492' action='modify' visible='true' lat='43.50912369969' lon='-80.53650661496' />
  <node id='-1086493' action='modify' visible='true' lat='43.50912053879' lon='-80.53678757669' />
  <node id='-1086494' action='modify' visible='true' lat='43.50911980906' lon='-80.53647174624' />
  <node id='-1086495' action='modify' visible='true' lat='43.50911859325' lon='-80.53662429688' />
  <way id='-1086437' action='modify' visible='true'>
    <nd ref='-1086485' />
    <nd ref='-1086494' />
    <nd ref='-1086492' />
    <nd ref='-1086488' />
    <nd ref='-1086487' />
    <nd ref='-1086483' />
    <nd ref='-1086495' />
    <nd ref='-1086490' />
    <nd ref='-1086489' />
    <nd ref='-1086486' />
    <nd ref='-1086484' />
    <nd ref='-1086493' />
    <nd ref='-1086491' />
    <tag k='gs' v='path' />
    <tag k='name' v='free_food_in_dc' />
    <tag k='virtual' v='no' />
  </way>
</osm>
