<?xml version='1.0' encoding='UTF-8'?>
<osm version='0.6' upload='false' generator='JOSM'>
  <node id='-986192' action='modify' visible='true' lat='43.46852534724' lon='-80.54377563002'>
    <tag k='gs' v='egostart' />
    <tag k='name' v='goal start' />
    <tag k='order' v='1' />
    <tag k='orientation' v='265' />
    <tag k='yaw' v='265' />
  </node>
  <node id='-986194' action='modify' visible='true' lat='43.4738969087' lon='-80.54635448063'>
    <tag k='gs' v='egogoal' />
    <tag k='name' v='g2' />
    <tag k='order' v='2' />
  </node>
  <node id='-986196' action='modify' visible='true' lat='43.473361522' lon='-80.54176209976'>
    <tag k='gs' v='egogoal' />
    <tag k='name' v='g3' />
    <tag k='order' v='3' />
  </node>
  <node id='-986198' action='modify' visible='true' lat='43.47059950681' lon='-80.53845813847'>
    <tag k='gs' v='egogoal' />
    <tag k='name' v='g4' />
    <tag k='order' v='4' />
  </node>
  <node id='-986200' action='modify' visible='true' lat='43.46793312003' lon='-80.54047577692'>
    <tag k='gs' v='egogoal' />
    <tag k='name' v='g5' />
    <tag k='order' v='5' />
  </node>
  <node id='-986202' action='modify' visible='true' lat='43.46836326481' lon='-80.5434398148'>
    <tag k='gs' v='egogoal' />
    <tag k='name' v='g6' />
    <tag k='order' v='6' />
  </node>
  <node id='-1200483' action='modify' visible='true' lat='43.47140134664' lon='-80.54280298623'>
    <tag k='collision' v='yes' />
    <tag k='gs' v='globalconfig' />
    <tag k='lanelet' v='ring_road' />
    <tag k='mutate' v='no' />
    <tag k='name' v='ring_road_cw' />
    <tag k='optimize' v='no' />
    <tag k='timeout' v='1200' />
    <tag k='version' v='1.1' />
  </node>
  <node id='-1200541' action='modify' visible='true' lat='43.47009400421' lon='-80.54421972136'>
    <tag k='gs' v='egogoal' />
    <tag k='name' v='g1' />
    <tag k='order' v='1' />
  </node>
</osm>
