<?xml version='1.0' encoding='UTF-8'?>
<osm version='0.6' upload='false' generator='JOSM'>
  <node id='-1202894' action='modify' visible='true' lat='43.4340666602' lon='-80.57798851748'>
    <tag k='gs' v='egostart' />
    <tag k='name' v='egostart' />
    <tag k='orientation' v='17' />
  </node>
  <node id='-1202896' action='modify' visible='true' lat='43.43411139626' lon='-80.57799891737'>
    <tag k='gs' v='egogoal' />
    <tag k='name' v='g1' />
  </node>
  <node id='-1202898' action='modify' visible='true' lat='43.43383628499' lon='-80.57785915345'>
    <tag k='collision' v='yes' />
    <tag k='gs' v='globalconfig' />
    <tag k='lanelet' v='test_track_cul_de_sac' />
    <tag k='mutate' v='no' />
    <tag k='name' v='aaa_cul_de_sac' />
    <tag k='optimize' v='no' />
    <tag k='timeout' v='120' />
    <tag k='version' v='1.1' />
  </node>
  <node id='-1202900' action='modify' visible='true' lat='43.43405664182' lon='-80.57806603179'>
    <tag k='elevation' v='335.324893039' />
    <tag k='gs' v='origin' />
  </node>
</osm>
