<?xml version='1.0' encoding='UTF-8'?>
<osm version='0.6' upload='false' generator='JOSM'>
  <node id='-1062104' action='modify' visible='true' lat='43.46883354968' lon='-80.53938428005'>
    <tag k='elevation' v='298.0' />
  </node>
  <node id='-1062106' action='modify' visible='true' lat='43.47180570603' lon='-80.53990479592'>
    <tag k='gs' v='egostart' />
    <tag k='orientation' v='225' />
  </node>
  <node id='-1062108' action='modify' visible='true' lat='43.47231398759' lon='-80.54058976538'>
    <tag k='gs' v='egogoal' />
    <tag k='name' v='g1' />
  </node>
  <node id='-1110914' action='modify' visible='true' lat='43.47185655941' lon='-80.53981930152'>
    <tag k='collision' v='yes' />
    <tag k='gs' v='globalconfig' />
    <tag k='lanelet' v='ring_road' />
    <tag k='mutate' v='no' />
    <tag k='name' v='rr_xwalk_ped_cut_corner' />
    <tag k='optimize' v='no' />
    <tag k='timeout' v='60' />
    <tag k='version' v='1.1' />
  </node>
  <node id='-1062110' action='modify' visible='true' lat='43.47208916646' lon='-80.54042413865'>
    <tag k='cycles' v='1' />
    <tag k='gs' v='pedestrian' />
    <tag k='name' v='bob_your_uncle' />
    <tag k='orientation' v='150' />
    <tag k='path' v='crossing' />
    <tag k='speed' v='5.3' />
    <tag k='start' v='no' />
  </node>
  <node id='-1062112' action='modify' visible='true' lat='43.47207335111' lon='-80.54023671929' />
  <node id='-1062114' action='modify' visible='true' lat='43.47207992056' lon='-80.54017301682' />
  <node id='-1062116' action='modify' visible='true' lat='43.47207627087' lon='-80.54010026191' />
  <node id='-1062118' action='modify' visible='true' lat='43.47208454352' lon='-80.54003454778' />
  <node id='-1062120' action='modify' visible='true' lat='43.47185582873' lon='-80.53997855667'>
    <tag k='activate' v='location' />
    <tag k='astart' v='yes' />
    <tag k='gs' v='trigger' />
    <tag k='name' v='ped_start_crossing' />
    <tag k='owner' v='ego' />
    <tag k='radius' v='100' />
    <tag k='target' v='bob_your_uncle' />
  </node>
  <node id='-1062122' action='modify' visible='true' lat='43.47196142694' lon='-80.54026789997'>
    <tag k='cycles' v='1' />
    <tag k='gs' v='pedestrian' />
    <tag k='name' v='joe' />
    <tag k='orientation' v='45' />
    <tag k='path' v='cross_right' />
    <tag k='speed' v='3.6' />
    <tag k='start' v='no' />
  </node>
  <node id='-1062124' action='modify' visible='true' lat='43.47206361858' lon='-80.54027762297' />
  <node id='-1062126' action='modify' visible='true' lat='43.47207797406' lon='-80.54017670486' />
  <node id='-1062128' action='modify' visible='true' lat='43.47207237785' lon='-80.54010964964' />
  <node id='-1062130' action='modify' visible='true' lat='43.47208576007' lon='-80.54000671987' />
  <node id='-1062132' action='modify' visible='true' lat='43.47206532177' lon='-80.54034568403' />
  <node id='-1062144' action='modify' visible='true' lat='43.47206824153' lon='-80.54029539261' />
  <node id='-1062172' action='modify' visible='true' lat='43.4720256617' lon='-80.54028533433' />
  <way id='-1062133' action='modify' visible='true'>
    <nd ref='-1062110' />
    <nd ref='-1062132' />
    <nd ref='-1062144' />
    <nd ref='-1062112' />
    <nd ref='-1062114' />
    <nd ref='-1062116' />
    <nd ref='-1062118' />
    <tag k='gs' v='path' />
    <tag k='name' v='crossing' />
    <tag k='virtual' v='no' />
  </way>
  <way id='-1062134' action='modify' visible='true'>
    <nd ref='-1062122' />
    <nd ref='-1062172' />
    <nd ref='-1062124' />
    <nd ref='-1062126' />
    <nd ref='-1062128' />
    <nd ref='-1062130' />
    <tag k='gs' v='path' />
    <tag k='name' v='cross_right' />
    <tag k='virtual' v='no' />
  </way>
</osm>
