<?xml version='1.0' encoding='UTF-8'?>
<osm version='0.6' upload='false' generator='JOSM'>
  <node id='-1151033' action='modify' lat='43.50042642606' lon='-80.53783685669'>
    <tag k='cycles' v='1' />
    <tag k='gs' v='vehicle' />
    <tag k='name' v='v_north' />
    <tag k='orientation' v='210' />
    <tag k='path' v='vpath_north' />
    <tag k='speed' v='20' />
    <tag k='start' v='false' />
    <tag k='usespeedprofile' v='false' />
  </node>
  <node id='-1151034' action='modify' lat='43.500651' lon='-80.538081'>
    <tag k='elevation' v='306' />
    <tag k='gs' v='origin' />
  </node>
  <node id='-1151035' action='modify' lat='43.50065395759' lon='-80.53808372239' />
  <node id='-1151037' action='modify' lat='43.50067846192' lon='-80.53812270164' />
  <node id='-1151039' action='modify' lat='43.50072275818' lon='-80.53818246982' />
  <node id='-1151041' action='modify' lat='43.50075197487' lon='-80.53823574145' />
  <node id='-1151043' action='modify' lat='43.50078119152' lon='-80.53827342139' />
  <node id='-1151045' action='modify' lat='43.50079438614' lon='-80.5383059041' />
  <node id='-1151047' action='modify' lat='43.50081040816' lon='-80.53833578819' />
  <node id='-1151049' action='modify' lat='43.5008264302' lon='-80.53836437297' />
  <node id='-1151051' action='modify' lat='43.50087543872' lon='-80.53845662385' />
  <node id='-1151053' action='modify' lat='43.50090847917' lon='-80.5385210341' />
  <node id='-1151055' action='modify' lat='43.50093575684' lon='-80.53858395605' />
  <node id='-1151057' action='modify' lat='43.50097375037' lon='-80.53866866858' />
  <node id='-1151059' action='modify' lat='43.50102633759' lon='-80.53879417467' />
  <node id='-1151061' action='modify' lat='43.5010606443' lon='-80.53887395337' />
  <node id='-1151063' action='modify' lat='43.50114922768' lon='-80.53906961027' />
  <node id='-1151065' action='modify' lat='43.50122698715' lon='-80.53923471927' />
  <node id='-1151067' action='modify' lat='43.50131907026' lon='-80.53941560304' />
  <node id='-1151069' action='modify' lat='43.50141166385' lon='-80.53955899586' />
  <node id='-1151071' action='modify' lat='43.50051549939' lon='-80.53791970578'>
    <tag k='cycles' v='-1' />
    <tag k='gs' v='vehicle' />
    <tag k='name' v='v_right' />
    <tag k='orientation' v='220' />
    <tag k='path' v='vpath_turnright' />
    <tag k='speed' v='20' />
    <tag k='start' v='false' />
    <tag k='usespeedprofile' v='false' />
  </node>
  <node id='-1151077' action='modify' lat='43.50059860281' lon='-80.53801212755' />
  <node id='-1151079' action='modify' lat='43.50061972754' lon='-80.53803890216' />
  <node id='-1151081' action='modify' lat='43.50064953204' lon='-80.53806688486' />
  <node id='-1151083' action='modify' lat='43.50068120668' lon='-80.53808002677' />
  <node id='-1151085' action='modify' lat='43.50075061487' lon='-80.53806833175' />
  <node id='-1151087' action='modify' lat='43.5007788277' lon='-80.53805022601' />
  <node id='-1151089' action='modify' lat='43.50083051271' lon='-80.53799272092' />
  <node id='-1151091' action='modify' lat='43.50087915863' lon='-80.53793195913' />
  <node id='-1151093' action='modify' lat='43.50093934803' lon='-80.53784125691' />
  <node id='-1151095' action='modify' lat='43.50098357547' lon='-80.53776286959' />
  <node id='-1151097' action='modify' lat='43.50102042333' lon='-80.53768413269' />
  <node id='-1151099' action='modify' lat='43.50105923268' lon='-80.53758982619' />
  <node id='-1151101' action='modify' lat='43.50111190589' lon='-80.5374485592' />
  <node id='-1151103' action='modify' lat='43.5011455631' lon='-80.53735563178' />
  <node id='-1151107' action='modify' lat='43.50098256633' lon='-80.53880876945'>
    <tag k='cycles' v='1' />
    <tag k='gs' v='vehicle' />
    <tag k='name' v='v_south' />
    <tag k='orientation' v='45' />
    <tag k='path' v='vpath_south' />
    <tag k='speed' v='20' />
    <tag k='start' v='false' />
    <tag k='usespeedprofile' v='false' />
  </node>
  <node id='-1151109' action='modify' lat='43.5009370973' lon='-80.53871161593' />
  <node id='-1151111' action='modify' lat='43.50089786225' lon='-80.53861264526' />
  <node id='-1151113' action='modify' lat='43.50084922285' lon='-80.53850753313' />
  <node id='-1151115' action='modify' lat='43.50081680969' lon='-80.53844113658' />
  <node id='-1151117' action='modify' lat='43.50076497371' lon='-80.53834108985' />
  <node id='-1151119' action='modify' lat='43.50072350489' lon='-80.53826832859' />
  <node id='-1151121' action='modify' lat='43.50068863335' lon='-80.53821375765' />
  <node id='-1151123' action='modify' lat='43.5006412813' lon='-80.53814803096' />
  <node id='-1151125' action='modify' lat='43.50059819733' lon='-80.53809383209' />
  <node id='-1151127' action='modify' lat='43.50055749651' lon='-80.53804161939' />
  <node id='-1151129' action='modify' lat='43.50052585501' lon='-80.53800464344' />
  <node id='-1151131' action='modify' lat='43.50049165595' lon='-80.5379694877' />
  <node id='-1151133' action='modify' lat='43.5004100425' lon='-80.53789314922' />
  <node id='-1151135' action='modify' lat='43.5012722694' lon='-80.53932369989'>
    <tag k='gs' v='egogoal' />
    <tag k='name' v='g1' />
  </node>
  <node id='-1151137' action='modify' lat='43.50111052197' lon='-80.53758067157'>
    <tag k='gs' v='egostart' />
    <tag k='name' v='ego_start_01' />
    <tag k='orientation' v='150' />
  </node>
  <node id='-1151139' action='modify' lat='43.50087072038' lon='-80.53801754247'>
    <tag k='astart' v='true' />
    <tag k='gs' v='trigger' />
    <tag k='name' v='t1' />
    <tag k='owner' v='ego' />
    <tag k='target' v='v_north' />
  </node>
  <node id='-1151141' action='modify' lat='43.500854212' lon='-80.53803729123'>
    <tag k='astart' v='true' />
    <tag k='gs' v='trigger' />
    <tag k='name' v='t2' />
    <tag k='owner' v='ego' />
    <tag k='target' v='v_south' />
  </node>
  <node id='-1151143' action='modify' lat='43.50083673642' lon='-80.53805742048'>
    <tag k='astart' v='true' />
    <tag k='gs' v='trigger' />
    <tag k='name' v='t3' />
    <tag k='owner' v='ego' />
    <tag k='target' v='v_right' />
  </node>
  <node id='-1151147' action='modify' lat='43.50083064339' lon='-80.53823073543'>
    <tag k='collision' v='yes' />
    <tag k='gs' v='globalconfig' />
    <tag k='lanelet' v='colby_drive' />
    <tag k='mutate' v='no' />
    <tag k='name' v='colby_intersection' />
    <tag k='optimize' v='no' />
    <tag k='timeout' v='120' />
    <tag k='version' v='1.1' />
  </node>
  <node id='-1151341' action='modify' lat='43.50071952468' lon='-80.53807944782' />
  <node id='-1151363' action='modify' lat='43.50063222971' lon='-80.53805219364' />
  <node id='-1151378' action='modify' lat='43.50070086605' lon='-80.53808067241' />
  <node id='-1151385' action='modify' lat='43.50073596162' lon='-80.53807516039' />
  <node id='-1151397' action='modify' lat='43.50076417134' lon='-80.53806168656' />
  <node id='-1151428' action='modify' lat='43.50054049301' lon='-80.53794654752' />
  <way id='-1151144' action='modify'>
    <nd ref='-1151033' />
    <nd ref='-1151428' />
    <nd ref='-1151035' />
    <nd ref='-1151037' />
    <nd ref='-1151039' />
    <nd ref='-1151041' />
    <nd ref='-1151043' />
    <nd ref='-1151045' />
    <nd ref='-1151047' />
    <nd ref='-1151049' />
    <nd ref='-1151051' />
    <nd ref='-1151053' />
    <nd ref='-1151055' />
    <nd ref='-1151057' />
    <nd ref='-1151059' />
    <nd ref='-1151061' />
    <nd ref='-1151063' />
    <nd ref='-1151065' />
    <nd ref='-1151067' />
    <nd ref='-1151069' />
    <tag k='gs' v='path' />
    <tag k='name' v='vpath_north' />
  </way>
  <way id='-1151145' action='modify'>
    <nd ref='-1151071' />
    <nd ref='-1151077' />
    <nd ref='-1151079' />
    <nd ref='-1151363' />
    <nd ref='-1151081' />
    <nd ref='-1151083' />
    <nd ref='-1151378' />
    <nd ref='-1151341' />
    <nd ref='-1151385' />
    <nd ref='-1151085' />
    <nd ref='-1151397' />
    <nd ref='-1151087' />
    <nd ref='-1151089' />
    <nd ref='-1151091' />
    <nd ref='-1151093' />
    <nd ref='-1151095' />
    <nd ref='-1151097' />
    <nd ref='-1151099' />
    <nd ref='-1151101' />
    <nd ref='-1151103' />
    <tag k='gs' v='path' />
    <tag k='name' v='vpath_turnright' />
  </way>
  <way id='-1151146' action='modify'>
    <nd ref='-1151107' />
    <nd ref='-1151109' />
    <nd ref='-1151111' />
    <nd ref='-1151113' />
    <nd ref='-1151115' />
    <nd ref='-1151117' />
    <nd ref='-1151119' />
    <nd ref='-1151121' />
    <nd ref='-1151123' />
    <nd ref='-1151125' />
    <nd ref='-1151127' />
    <nd ref='-1151129' />
    <nd ref='-1151131' />
    <nd ref='-1151133' />
    <tag k='gs' v='path' />
    <tag k='name' v='vpath_south' />
  </way>
</osm>
