<?xml version='1.0' encoding='UTF-8'?>
<osm version='0.6' upload='false' generator='JOSM'>
  <node id='-528387' action='modify' visible='true' lat='43.51120285879' lon='-80.53096678874'>
    <tag k='elevation' v='300.001924902' />
  </node>
  <node id='-528388' action='modify' visible='true' lat='43.50821984691' lon='-80.53832229495'>
    <tag k='cycles' v='1' />
    <tag k='gs' v='vehicle' />
    <tag k='name' v='v1' />
    <tag k='orientation' v='270' />
  </node>
</osm>
