<?xml version='1.0' encoding='UTF-8'?>
<osm version='0.6' upload='false' generator='JOSM'>
  <node id='-292880' action='modify' visible='true' lat='43.51120285879' lon='-80.53096678874'>
    <tag k='elevation' v='300.001924902' />
  </node>
  <node id='-357180' action='modify' visible='true' lat='43.50891215373' lon='-80.53745933772'>
    <tag k='gs' v='egostart' />
    <tag k='orientation' v='-25' />
  </node>
  <node id='-357181' action='modify' visible='true' lat='43.50948541897' lon='-80.53585051213'>
    <tag k='gs' v='egogoal' />
    <tag k='name' v='g1' />
  </node>
  <node id='-357197' action='modify' visible='true' lat='43.5096300027' lon='-80.53652551939'>
    <tag k='collision' v='yes' />
    <tag k='gs' v='globalconfig' />
    <tag k='lanelet' v='bathurst_all_way_stop' />
    <tag k='mutate' v='no' />
    <tag k='name' v='evaluation_fw_intersection_wsfa' />
    <tag k='optimize' v='no' />
    <tag k='timeout' v='120' />
    <tag k='version' v='1.1' />
  </node>
</osm>
