<?xml version='1.0' encoding='UTF-8'?>
<osm version='0.6' upload='false' generator='JOSM'>
  <node id='-934871' action='modify' visible='true' lat='43.43401369694' lon='-80.5773035001'>
    <tag k='cycles' v='1' />
    <tag k='gs' v='vehicle' />
    <tag k='name' v='POV' />
    <tag k='orientation' v='190' />
    <tag k='start' v='no' />
  </node>
</osm>
