{
  "LevelName" : "BathurstLevel",
  "LaneletMapFile" : "bathurst.osm",
  "CalibrationLat": 43.50915686425,
  "CalibrationLon": -80.53648493552,
  "CalibrationAlt": 302,
  "LineTickness" : 10,
  "LineColor" : "white",
  "PointTickness" : 1,
  "PointColor": "white",
  "DrawCentralLine": "False"
}
