<?xml version='1.0' encoding='UTF-8'?>
<osm version='0.6' upload='false' generator='JOSM'>
  <node id='-172884' action='modify' lat='43.50903585948' lon='-80.53725170908'>
    <tag k='agentspeed' v='5' />
  </node>
  <node id='-172885' action='modify' lat='43.50909181859' lon='-80.53708818272'>
    <tag k='agentspeed' v='20' />
  </node>
  <node id='-172886' action='modify' lat='43.50913084109' lon='-80.53696859005'>
    <tag k='agentspeed' v='30' />
  </node>
  <node id='-172887' action='modify' lat='43.50924953382' lon='-80.53662401043'>
    <tag k='agentspeed' v='60' />
  </node>
  <node id='-172888' action='modify' lat='43.50936047812' lon='-80.53633355216'>
    <tag k='agentspeed' v='20' />
  </node>
  <node id='-172889' action='modify' lat='43.50941292271' lon='-80.53618187064'>
    <tag k='agentspeed' v='10' />
  </node>
  <node id='-172890' action='modify' lat='43.50941906962' lon='-80.53677180116'>
    <tag k='gs' v='egogoal' />
    <tag k='name' v='g1' />
  </node>
  <node id='-172891' action='modify' lat='43.50868541084' lon='-80.53626150436'>
    <tag k='gs' v='egostart' />
    <tag k='orientation' v='240' />
  </node>
  <node id='-172892' action='modify' lat='43.50900669584' lon='-80.53649410517'>
    <tag k='astart' v='yes' />
    <tag k='delay' v='0' />
    <tag k='gs' v='trigger' />
    <tag k='name' v='west_start' />
    <tag k='owner' v='ego' />
    <tag k='target' v='v_west' />
  </node>
  <node id='-172893' action='modify' lat='43.5093059935' lon='-80.53647186991'>
    <tag k='agentspeed' v='30' />
  </node>
  <node id='-172894' action='modify' lat='43.50879354871' lon='-80.53743979872'>
    <tag k='collision' v='yes' />
    <tag k='gs' v='globalconfig' />
    <tag k='lanelet' v='bathurst_drive' />
    <tag k='mutate' v='no' />
    <tag k='name' v='bathurst_varying_speeds' />
    <tag k='optimize' v='no' />
    <tag k='timeout' v='1200' />
    <tag k='version' v='1.1' />
  </node>
  <node id='-172895' action='modify' lat='43.50941292' lon='-80.53618187805'>
    <tag k='cycles' v='-1' />
    <tag k='gs' v='vehicle' />
    <tag k='name' v='v_west' />
    <tag k='orientation' v='180' />
    <tag k='path' v='vp_west' />
    <tag k='speed' v='30' />
    <tag k='usespeedprofile' v='yes' />
  </node>
  <node id='-204223' action='modify' lat='43.50887228452' lon='-80.53760279248'>
    <tag k='agentspeed' v='60' />
  </node>
  <node id='-204224' action='modify' lat='43.50913994081' lon='-80.53680857558'>
    <tag k='agentspeed' v='30' />
  </node>
  <node id='-204225' action='modify' lat='43.50923696592' lon='-80.53652256524'>
    <tag k='agentspeed' v='60' />
  </node>
  <node id='-204226' action='modify' lat='43.50931837767' lon='-80.53632574092'>
    <tag k='agentspeed' v='30' />
  </node>
  <node id='-204227' action='modify' lat='43.50949123789' lon='-80.5358352178'>
    <tag k='agentspeed' v='60' />
  </node>
  <node id='-204232' action='modify' lat='43.50895481102' lon='-80.53734695796'>
    <tag k='cycles' v='-1' />
    <tag k='gs' v='vehicle' />
    <tag k='name' v='v_east' />
    <tag k='orientation' v='0' />
    <tag k='path' v='vp_east' />
    <tag k='speed' v='0' />
    <tag k='usespeedprofile' v='yes' />
  </node>
  <node id='-204252' action='modify' lat='43.50900360465' lon='-80.53649142856'>
    <tag k='astart' v='yes' />
    <tag k='delay' v='0' />
    <tag k='gs' v='trigger' />
    <tag k='name' v='east_start' />
    <tag k='owner' v='ego' />
    <tag k='target' v='v_east' />
  </node>
  <node id='-204279' action='modify' lat='43.50907079638' lon='-80.53701155067'>
    <tag k='agentspeed' v='60' />
  </node>
  <way id='-172885' action='modify'>
    <nd ref='-172889' />
    <nd ref='-172888' />
    <nd ref='-172893' />
    <nd ref='-172887' />
    <nd ref='-172886' />
    <nd ref='-172885' />
    <nd ref='-172884' />
    <tag k='gs' v='path' />
    <tag k='name' v='vp_west' />
  </way>
  <way id='-173334' action='modify'>
    <nd ref='-204223' />
    <nd ref='-204279' />
    <nd ref='-204224' />
    <nd ref='-204225' />
    <nd ref='-204226' />
    <nd ref='-204227' />
    <tag k='gs' v='path' />
    <tag k='name' v='vp_east' />
    <tag k='virtual' v='no' />
  </way>
</osm>
