<?xml version='1.0' encoding='UTF-8'?>
<osm version='0.6' upload='false' generator='JOSM'>
  <node id='-5149253' action='modify' lat='43.47087901417' lon='-80.53846767511'>
    <tag k='gs' v='egostart' />
    <tag k='name' v='egostart' />
    <tag k='orientation' v='240' />
    <tag k='yaw' v='240' />
  </node>
  <node id='-5149254' action='modify' lat='43.4712656284' lon='-80.53900128238'>
    <tag k='gs' v='egogoal' />
    <tag k='name' v='g1' />
    <tag k='order' v='1' />
  </node>
  <node id='-5149255' action='modify' lat='43.50674721495' lon='-80.53452775838'>
    <tag k='collision' v='yes' />
    <tag k='gs' v='globalconfig' />
    <tag k='lanelet' v='ring_road' />
    <tag k='mutate' v='no' />
    <tag k='name' v='ring_road_pedestrian_collision' />
    <tag k='optimize' v='no' />
    <tag k='timeout' v='600' />
    <tag k='version' v='1.1' />
  </node>
</osm>
