<?xml version='1.0' encoding='UTF-8'?>
<gpx version="1.1" creator="JOSM GPX export" xmlns="http://www.topografix.com/GPX/1/1"
    xmlns:xsi="http://www.w3.org/2001/XMLSchema-instance"
    xsi:schemaLocation="http://www.topografix.com/GPX/1/1 http://www.topografix.com/GPX/1/1/gpx.xsd">
  <trk>
    <trkseg>
      <trkpt lat="43.47177460166" lon="-80.53985164586">
      </trkpt>
      <trkpt lat="43.47337806694" lon="-80.54172320773">
      </trkpt>
      <trkpt lat="43.47392707861" lon="-80.54639337266">
      </trkpt>
      <trkpt lat="43.46856581671" lon="-80.54383914541">
      </trkpt>
      <trkpt lat="43.46817903037" lon="-80.54029912396">
      </trkpt>
      <trkpt lat="43.47168040364" lon="-80.53970896384">
      </trkpt>
    </trkseg>
  </trk>
</gpx>
