<?xml version='1.0' encoding='UTF-8'?>
<osm version='0.6' upload='false' generator='JOSM'>
  <node id='-462401' action='modify' visible='true' lat='43.51120285879' lon='-80.53096678874'>
    <tag k='elevation' v='300.001924902' />
  </node>
  <node id='-462623' action='modify' visible='true' lat='43.50909718825' lon='-80.53655237094'>
    <tag k='apath' v='vp_1' />
    <tag k='astart' v='no' />
    <tag k='delay' v='3' />
    <tag k='gs' v='trigger' />
    <tag k='name' v='t1' />
    <tag k='owner' v='ego' />
    <tag k='radius' v='100' />
    <tag k='target' v='v1' />
  </node>
  <node id='-462624' action='modify' visible='true' lat='43.50973232944' lon='-80.5352917327'>
    <tag k='cycles' v='1' />
    <tag k='gs' v='vehicle' />
    <tag k='name' v='v1' />
    <tag k='speed' v='50' />
  </node>
  <node id='-462625' action='modify' visible='true' lat='43.50931554919' lon='-80.53646184638' />
  <node id='-462626' action='modify' visible='true' lat='43.50896247521' lon='-80.53746968642' />
  <way id='-421957' action='modify' visible='true'>
    <nd ref='-462624' />
    <nd ref='-462625' />
    <nd ref='-462626' />
    <tag k='gs' v='path' />
    <tag k='name' v='vp_1' />
    <tag k='virtual' v='no' />
  </way>
</osm>
