<?xml version='1.0' encoding='UTF-8'?>
<osm version='0.6' upload='false' generator='JOSM'>
  <node id='-1202668' action='modify' lat='43.46883354968' lon='-80.53938428005'>
    <tag k='elevation' v='298.0' />
  </node>
  <node id='-1202669' action='modify' lat='43.47194712443' lon='-80.54009742979'>
    <tag k='gs' v='egostart' />
    <tag k='orientation' v='225' />
    <tag k='yaw' v='225' />
  </node>
  <node id='-1202670' action='modify' lat='43.47231398759' lon='-80.54058976538'>
    <tag k='gs' v='egogoal' />
    <tag k='name' v='g1' />
  </node>
  <node id='-1202671' action='modify' lat='43.47185274322' lon='-80.53957215008'>
    <tag k='collision' v='yes' />
    <tag k='gs' v='globalconfig' />
    <tag k='lanelet' v='ring_road' />
    <tag k='mutate' v='no' />
    <tag k='name' v='rr_xwalk_ped_stop1' />
    <tag k='optimize' v='no' />
    <tag k='timeout' v='120' />
    <tag k='version' v='1.1' />
  </node>
  <node id='-1202672' action='modify' lat='43.47201687755' lon='-80.54033872906'>
    <tag k='cycles' v='1' />
    <tag k='gs' v='pedestrian' />
    <tag k='name' v='P1' />
    <tag k='orientation' v='150' />
    <tag k='path' v='crossing' />
    <tag k='speed' v='5.3' />
    <tag k='start' v='no' />
  </node>
  <node id='-1202673' action='modify' lat='43.47206750662' lon='-80.5402581564' />
  <node id='-1202674' action='modify' lat='43.47198722445' lon='-80.54014893536'>
    <tag k='activate' v='location' />
    <tag k='astart' v='yes' />
    <tag k='gs' v='trigger' />
    <tag k='name' v='ped_start_crossing' />
    <tag k='owner' v='ego' />
    <tag k='radius' v='100' />
    <tag k='target' v='P1' />
  </node>
  <node id='-1202675' action='modify' lat='43.47204502998' lon='-80.54029871974' />
  <way id='-1202360' action='modify'>
    <nd ref='-1202672' />
    <nd ref='-1202675' />
    <nd ref='-1202673' />
    <tag k='gs' v='path' />
    <tag k='name' v='crossing' />
    <tag k='virtual' v='no' />
  </way>
</osm>
