<?xml version='1.0' encoding='UTF-8'?>
<osm version='0.6' upload='false' generator='JOSM'>
  <node id='-1062272' action='modify' visible='true' lat='43.46883354968' lon='-80.53938428005'>
    <tag k='elevation' v='298.0' />
  </node>
  <node id='-1062274' action='modify' visible='true' lat='43.47199451759' lon='-80.54017502848'>
    <tag k='gs' v='egostart' />
    <tag k='orientation' v='225' />
  </node>
  <node id='-1062276' action='modify' visible='true' lat='43.47231398759' lon='-80.54058976538'>
    <tag k='gs' v='egogoal' />
    <tag k='name' v='g1' />
  </node>
  <node id='-1110914' action='modify' visible='true' lat='43.47185655941' lon='-80.53981930152'>
    <tag k='collision' v='yes' />
    <tag k='gs' v='globalconfig' />
    <tag k='lanelet' v='ring_road' />
    <tag k='mutate' v='no' />
    <tag k='name' v='rr_xwalk_peds_change_mind_2' />
    <tag k='optimize' v='no' />
    <tag k='timeout' v='60' />
    <tag k='version' v='1.1' />
  </node>
  <node id='-1062278' action='modify' visible='true' lat='43.47204366689' lon='-80.54039765183'>
    <tag k='cycles' v='1' />
    <tag k='gs' v='pedestrian' />
    <tag k='name' v='bob_your_uncle' />
    <tag k='orientation' v='150' />
    <tag k='path' v='what_is_life' />
    <tag k='speed' v='5.3' />
    <tag k='start' v='yes' />
  </node>
  <node id='-1062280' action='modify' visible='true' lat='43.4720714046' lon='-80.54028533433' />
  <node id='-1062282' action='modify' visible='true' lat='43.47204269364' lon='-80.54029773954' />
  <node id='-1062284' action='modify' visible='true' lat='43.47208770658' lon='-80.54023269598' />
  <node id='-1062286' action='modify' visible='true' lat='43.47207189123' lon='-80.54005030576' />
  <node id='-1062288' action='modify' visible='true' lat='43.47201203615' lon='-80.54020118002'>
    <tag k='activate' v='location' />
    <tag k='astart' v='yes' />
    <tag k='gs' v='trigger' />
    <tag k='name' v='ped_start_crossing' />
    <tag k='owner' v='ego' />
    <tag k='radius' v='100' />
    <tag k='target' v='bob_your_uncle' />
  </node>
  <node id='-1062300' action='modify' visible='true' lat='43.47204707328' lon='-80.54035708342' />
  <way id='-1062301' action='modify' visible='true'>
    <nd ref='-1062278' />
    <nd ref='-1062300' />
    <nd ref='-1062280' />
    <nd ref='-1062282' />
    <nd ref='-1062284' />
    <nd ref='-1062286' />
    <tag k='gs' v='path' />
    <tag k='name' v='what_is_life' />
    <tag k='virtual' v='no' />
  </way>
</osm>
