<?xml version='1.0' encoding='UTF-8'?>
<osm version='0.6' upload='false' generator='JOSM'>
  <node id='-166247' action='modify' visible='true' lat='43.50964147686' lon='-80.53850789675'>
    <tag k='dynamicinteractionlevels' v='1' />
    <tag k='name' v='v_1' />
    <tag k='path' v='vp_1' />
    <tag k='gs' v='vehicle' />
    <tag k='speed' v='15' />
    <tag k='start' v='false' />
  </node>
  <node id='-166254' action='modify' visible='true' lat='43.50969610009' lon='-80.53851253156' />
  <node id='-166256' action='modify' visible='true' lat='43.50974231972' lon='-80.53847197702' />
  <node id='-166258' action='modify' visible='true' lat='43.50981206926' lon='-80.53841288326' />
  <node id='-166260' action='modify' visible='true' lat='43.50988938192' lon='-80.53833640899' />
  <node id='-166262' action='modify' visible='true' lat='43.50994232423' lon='-80.53821011056' />
  <node id='-166264' action='modify' visible='true' lat='43.50998938401' lon='-80.53809655785' />
  <node id='-166266' action='modify' visible='true' lat='43.51025073324' lon='-80.53735498913' />
  <node id='-166270' action='modify' visible='true' lat='43.50993476104' lon='-80.53839434404'>
    <tag k='astart' v='true' />
    <tag k='owner' v='ego' />
    <tag k='name' v='t_1' />
    <tag k='gs' v='trigger' />
    <tag k='target' v='v_1' />
  </node>
  <way id='-166255' action='modify' visible='true'>
    <nd ref='-166247' />
    <nd ref='-166254' />
    <nd ref='-166256' />
    <nd ref='-166258' />
    <nd ref='-166260' />
    <nd ref='-166262' />
    <nd ref='-166264' />
    <nd ref='-166266' />
    <tag k='name' v='vp_1' />
    <tag k='gs' v='path' />
  </way>
</osm>
