<?xml version='1.0' encoding='UTF-8'?>
<osm version='0.6' upload='false' generator='JOSM'>
  <node id='-1115530' action='modify' visible='true' lat='43.51120285879' lon='-80.53096678874'>
    <tag k='elevation' v='300.001924902' />
  </node>
  <node id='-1115589' action='modify' visible='true' lat='43.50800677068' lon='-80.5353429473'>
    <tag k='cycles' v='1' />
    <tag k='gs' v='pedestrian' />
    <tag k='name' v='hungry_bolt' />
    <tag k='orientation' v='150' />
    <tag k='path' v='free_food_in_dc' />
    <tag k='speed' v='7' />
    <tag k='start' v='false' />
    <tag k='usespeedprofile' v='no' />
  </node>
  <node id='-1115590' action='modify' visible='true' lat='43.5079783202' lon='-80.53560278663' />
  <node id='-1115591' action='modify' visible='true' lat='43.50798026555' lon='-80.53557060012' />
  <node id='-1115592' action='modify' visible='true' lat='43.50800604117' lon='-80.53550522094' />
  <node id='-1115593' action='modify' visible='true' lat='43.50799193764' lon='-80.53553237864' />
  <node id='-1115594' action='modify' visible='true' lat='43.50801284988' lon='-80.53547739302' />
  <node id='-1115595' action='modify' visible='true' lat='43.50801406573' lon='-80.53545057093' />
  <node id='-1115596' action='modify' visible='true' lat='43.50801114771' lon='-80.53538753902' />
  <node id='-1115597' action='modify' visible='true' lat='43.50801456049' lon='-80.53541812473' />
  <node id='-1115598' action='modify' visible='true' lat='43.5080269539' lon='-80.53569532284' />
  <node id='-1115599' action='modify' visible='true' lat='43.50800725701' lon='-80.5353526703' />
  <node id='-1115600' action='modify' visible='true' lat='43.50798658793' lon='-80.53564033756' />
  <node id='-1115601' action='modify' visible='true' lat='43.50800798676' lon='-80.53566850075' />
  <node id='-1115602' action='modify' visible='true' lat='43.50708393958' lon='-80.5344628478'>
    <tag k='activate' v='location' />
    <tag k='astart' v='yes' />
    <tag k='gs' v='trigger' />
    <tag k='name' v='bolt_learns_there_is_free_food' />
    <tag k='owner' v='ego' />
    <tag k='radius' v='100' />
    <tag k='target' v='hungry_bolt' />
  </node>
  <way id='-1086522' action='modify' visible='true'>
    <nd ref='-1115589' />
    <nd ref='-1115599' />
    <nd ref='-1115596' />
    <nd ref='-1115597' />
    <nd ref='-1115595' />
    <nd ref='-1115594' />
    <nd ref='-1115592' />
    <nd ref='-1115593' />
    <nd ref='-1115591' />
    <nd ref='-1115590' />
    <nd ref='-1115600' />
    <nd ref='-1115601' />
    <nd ref='-1115598' />
    <tag k='gs' v='path' />
    <tag k='name' v='free_food_in_dc' />
    <tag k='virtual' v='no' />
  </way>
</osm>
