<?xml version='1.0' encoding='UTF-8'?>
<gpx version="1.1" creator="JOSM GPX export" xmlns="http://www.topografix.com/GPX/1/1"
    xmlns:xsi="http://www.w3.org/2001/XMLSchema-instance"
    xsi:schemaLocation="http://www.topografix.com/GPX/1/1 http://www.topografix.com/GPX/1/1/gpx.xsd">
  <trk>
    <trkseg>
      <trkpt lat="43.4684562" lon="-80.5433098"/>
      <trkpt lat="43.47389690869599" lon="-80.54635448062979"/>
      <trkpt lat="43.473361521996196" lon="-80.54176209976356"/>
      <trkpt lat="43.470599506812526" lon="-80.53845813847248"/>
      <trkpt lat="43.4684332" lon="-80.5402412"/>
      <trkpt lat="43.4684197" lon="-80.5433262"/>
    </trkseg>
  </trk>
</gpx>
