<?xml version='1.0' encoding='UTF-8'?>
<osm version='0.6' upload='false' generator='JOSM'>
  <node id='-528246' action='modify' visible='true' lat='43.51120285879' lon='-80.53096678874'>
    <tag k='elevation' v='300.001924902' />
  </node>
  <node id='-528247' action='modify' visible='true' lat='43.50690721394' lon='-80.53427031532'>
    <tag k='apath' v='vp_1' />
    <tag k='aspeed' v='35' />
    <tag k='astart' v='no' />
    <tag k='delay' v='0' />
    <tag k='gs' v='trigger' />
    <tag k='name' v='t1' />
    <tag k='owner' v='ego' />
    <tag k='radius' v='100' />
    <tag k='target' v='v1' />
  </node>
  <node id='-528248' action='modify' visible='true' lat='43.50725324797' lon='-80.53466040909'>
    <tag k='cycles' v='1' />
    <tag k='gs' v='vehicle' />
    <tag k='name' v='v1' />
    <tag k='orientation' v='230' />
    <tag k='speed' v='37' />
  </node>
  <node id='-528249' action='modify' visible='true' lat='43.50832611106' lon='-80.53586941481' />
  <node id='-528250' action='modify' visible='true' lat='43.50777654977' lon='-80.5352481468' />
  <node id='-528251' action='modify' visible='true' lat='43.50792536925' lon='-80.5354124321' />
  <node id='-528252' action='modify' visible='true' lat='43.50717202766' lon='-80.53456351295'>
    <tag k='activate' v='location' />
    <tag k='aspeed' v='5' />
    <tag k='gs' v='trigger' />
    <tag k='name' v='STOP1' />
    <tag k='owner' v='ego' />
    <tag k='target' v='v1' />
  </node>
  <way id='-422860' action='modify' visible='true'>
    <nd ref='-528248' />
    <nd ref='-528250' />
    <nd ref='-528251' />
    <nd ref='-528249' />
    <tag k='gs' v='path' />
    <tag k='name' v='vp_1' />
    <tag k='virtual' v='no' />
  </way>
</osm>
