<?xml version='1.0' encoding='UTF-8'?>
<osm version='0.6' upload='false' generator='JOSM'>
  <node id='-1050594' action='modify' visible='true' lat='43.51161812579' lon='-80.52967724633'>
    <tag k='dynamicinteractionlevels' v='1..' />
    <tag k='name' v='stationary_vehicle' />
    <tag k='orientation' v='235' />
    <tag k='gs' v='vehicle' />
    <tag k='speed' v='0' />
    <tag k='start' v='false' />
    <tag k='usespeedprofile' v='false' />
  </node>
  <node id='-1050596' action='modify' visible='true' lat='43.51269911372' lon='-80.52700907625'>
    <tag k='dynamicinteractionlevels' v='1..' />
    <tag k='loop' v='false' />
    <tag k='name' v='by_pass_vehicle_1' />
    <tag k='path' v='by_pass_path' />
    <tag k='orientation' v='150' />
    <tag k='gs' v='vehicle' />
    <tag k='speed' v='0' />
    <tag k='start' v='true' />
    <tag k='usespeedprofile' v='false' />
  </node>
  <node id='-1050598' action='modify' visible='true' lat='43.51257382286' lon='-80.52736187115'>
    <tag k='dynamicinteractionlevels' v='1..4' />
    <tag k='loop' v='false' />
    <tag k='name' v='by_pass_vehicle_2' />
    <tag k='path' v='by_pass_path' />
    <tag k='orientation' v='150' />
    <tag k='gs' v='vehicle' />
    <tag k='speed' v='0' />
    <tag k='start' v='true' />
    <tag k='usespeedprofile' v='false' />
  </node>
  <node id='-1050600' action='modify' visible='true' lat='43.5120866114' lon='-80.52873071368' />
  <node id='-1050602' action='modify' visible='true' lat='43.51180315238' lon='-80.52951926277' />
  <node id='-1050604' action='modify' visible='true' lat='43.51144277914' lon='-80.53052932402' />
  <node id='-1050606' action='modify' visible='true' lat='43.51121917251' lon='-80.53113826801' />
  <node id='-1050608' action='modify' visible='true' lat='43.51126724898' lon='-80.53086605536'>
    <tag k='actiondelay' v='2' />
    <tag k='aspeed' v='40' />
    <tag k='owner' v='ego' />
    <tag k='name' v='scenario_start_1' />
    <tag k='gs' v='trigger' />
    <tag k='target' v='by_pass_vehicle_1' />
  </node>
  <node id='-1050610' action='modify' visible='true' lat='43.51126724884' lon='-80.53086605516'>
    <tag k='actiondelay' v='2' />
    <tag k='aspeed' v='40' />
    <tag k='owner' v='ego' />
    <tag k='name' v='scenario_start_2' />
    <tag k='gs' v='trigger' />
    <tag k='target' v='by_pass_vehicle_2' />
  </node>
  <way id='-1050611' action='modify' visible='true'>
    <nd ref='-1050596' />
    <nd ref='-1050598' />
    <nd ref='-1050600' />
    <nd ref='-1050602' />
    <nd ref='-1050604' />
    <nd ref='-1050606' />
    <tag k='name' v='by_pass_path' />
    <tag k='gs' v='path' />
  </way>
</osm>
