evaluation_straight_road 0 -1 -H -nr -bp => 0
evaluation_straight_road 1 -1 -H -nr -bp => 0
evaluation_straight_road 2 -1 -H -nr -bp => 0
evaluation_straight_road 3 -1 -H -nr -bp => 0
evaluation_straight_road 4 -1 -H -nr -bp => 0
evaluation_straight_road 5 -1 -H -nr -bp => 0
evaluation_cul-de-sac 0 -1 -H -nr -bp => 0
evaluation_cul-de-sac 1 -1 -H -nr -bp => 0
evaluation_cul-de-sac 2 -1 -H -nr -bp => 0
evaluation_cul-de-sac 3 -1 -H -nr -bp => 0
evaluation_cul-de-sac 4 -1 -H -nr -bp => 0
evaluation_cul-de-sac 5 -1 -H -nr -bp => 0
evaluation_T_intersection_with_all_stop 0 -1 -H -nr -bp => 0
evaluation_T_intersection_with_all_stop 1 -1 -H -nr -bp => 0
evaluation_T_intersection_with_all_stop 2 -1 -H -nr -bp => 0
evaluation_T_intersection_with_all_stop 3 -1 -H -nr -bp => 0
evaluation_T_intersection_with_all_stop 4 -1 -H -nr -bp => 0
evaluation_T_intersection_with_all_stop 5 -1 -H -nr -bp => 0
evaluation_t_intersection_with_ego_stop 0 -1 -H -nr -bp => 0
evaluation_t_intersection_with_ego_stop 1 -1 -H -nr -bp => 0
evaluation_t_intersection_with_ego_stop 2 -1 -H -nr -bp => 0
evaluation_t_intersection_with_ego_stop 3 -1 -H -nr -bp => 0
evaluation_t_intersection_with_ego_stop 4 -1 -H -nr -bp => 0
evaluation_t_intersection_with_ego_stop 5 -1 -H -nr -bp => 0
evaluation_t_intersection_wosfe 0 -1 -H -nr -bp => 0
evaluation_t_intersection_wosfe 1 -1 -H -nr -bp => 0
evaluation_t_intersection_wosfe 2 -1 -H -nr -bp => 0
evaluation_t_intersection_wosfe 3 -1 -H -nr -bp => 0
evaluation_t_intersection_wosfe 4 -1 -H -nr -bp => 0
evaluation_t_intersection_wosfe 5 -1 -H -nr -bp => 0
evaluation_fw_intersection_wosfe 0 -1 -H -nr -bp => 0
evaluation_fw_intersection_wosfe 1 -1 -H -nr -bp => 0
evaluation_fw_intersection_wosfe 2 -1 -H -nr -bp => 0
evaluation_fw_intersection_wosfe 3 -1 -H -nr -bp => 0
evaluation_fw_intersection_wosfe 4 -1 -H -nr -bp => 0
evaluation_fw_intersection_wosfe 5 -1 -H -nr -bp => 0
evaluation_fw_intersection_wsfa 0 -1 -H -nr -bp => 0
evaluation_fw_intersection_wsfa 1 -1 -H -nr -bp => 0
evaluation_fw_intersection_wsfa 2 -1 -H -nr -bp => 0
evaluation_fw_intersection_wsfa 3 -1 -H -nr -bp => 0
evaluation_fw_intersection_wsfa 4 -1 -H -nr -bp => 0
evaluation_fw_intersection_wsfa 5 -1 -H -nr -bp => 0
evaluation_fw_intersection_wsfe 0 -1 -H -nr -bp => 0
evaluation_fw_intersection_wsfe 1 -1 -H -nr -bp => 0
evaluation_fw_intersection_wsfe 2 -1 -H -nr -bp => 0
evaluation_fw_intersection_wsfe 3 -1 -H -nr -bp => 0
evaluation_fw_intersection_wsfe 4 -1 -H -nr -bp => 0
evaluation_fw_intersection_wsfe 5 -1 -H -nr -bp => 0
