<?xml version='1.0' encoding='UTF-8'?>
<osm version='0.6' upload='false' generator='JOSM'>
  <node id='-5149446' action='modify' lat='43.47030933496' lon='-80.55456916479'>
    <tag k='collision' v='yes' />
    <tag k='gs' v='globalconfig' />
    <tag k='lanelet' v='avin' />
    <tag k='mutate' v='no' />
    <tag k='name' v='Columbia cut in' />
    <tag k='timeout' v='300' />
    <tag k='version' v='1.1' />
  </node>
  <node id='-5149447' action='modify' lat='43.47133994789' lon='-80.55563041744'>
    <tag k='gs' v='egostart' />
    <tag k='name' v='egostart' />
    <tag k='orientation' v='335' />
    <tag k='yaw' v='335' />
  </node>
  <node id='-5149448' action='modify' lat='43.47260485322' lon='-80.55088867565'>
    <tag k='gs' v='egogoal' />
    <tag k='name' v='G' />
    <tag k='order' v='0' />
  </node>
</osm>
